[{
	"TransactionId": "1",
	"Requisitions": "Req1,Req2",
	"ActiveCandidateCount": "5",	
	"PassiveCandidateCount": "10",
	"MatchedCandidateCount": "2",
	"NotMatchedCandidateCount": "13",
	"NotProcessedCount": "2",
	"TotalCandidatesCount": "17",
	"TransactionDate":"2016"
}, {
	"TransactionId": "2",
	"Requisitions": "Req2,Req3",
	"ActiveCandidateCount": "7",	
	"PassiveCandidateCount": "8",
	"MatchedCandidateCount": "6",
	"NotMatchedCandidateCount": "1",
	"NotProcessedCount": "3",
	"TotalCandidatesCount": "10",
	"TransactionDate":""
}, {
	"TransactionId": "3",
	"Requisitions": "Req3,Req4",
	"ActiveCandidateCount": "NA",	
	"PassiveCandidateCount": "NA",
	"MatchedCandidateCount": "10",
	"NotMatchedCandidateCount": "7",
	"NotProcessedCount": "3",
	"TotalCandidatesCount": "20",
	"TransactionDate":""
},{
	"TransactionId": "4",
	"Requisitions": "Req5,Req6",
	"ActiveCandidateCount": "0",	
	"PassiveCandidateCount": "0",
	"MatchedCandidateCount": "13",
	"NotMatchedCandidateCount": "3",
	"NotProcessedCount": "4",
	"TotalCandidatesCount": "20",
	"TransactionDate":""
}]